Project 2
…
housing_data <- unzip("data/csv_hnc.zip", files = c("psam_h37.csv")) |> 
  read_csv(col_types = cols(.default = "c"),
           show_col_types = FALSE) |>
  select(-RT)

Combine data

census <- housing_data |>
  inner_join(person_data)

Joining with `by = join_by(SERIALNO, DIVISION, PUMA, REGION, STATE, ADJINC)`

census

# A tibble: 111,920 × 520
   SERIALNO      DIVISION PUMA  REGION STATE ADJHSG  ADJINC WGTP  NP    TYPEHUGQ
   <chr>         <chr>    <chr> <chr>  <chr> <chr>   <chr>  <chr> <chr> <chr>   
 1 2023GQ0000042 5        00100 3      37    1000000 10195… 0     1     3       
 2 2023GQ0000043 5        03104 3      37    1000000 10195… 0     1     2       
 3 2023GQ0000055 5        04501 3      37    1000000 10195… 0     1     3       
 4 2023GQ0000065 5        00800 3      37    1000000 10195… 0     1     2       
 5 2023GQ0000087 5        01201 3      37    1000000 10195… 0     1     3       
 6 2023GQ0000107 5        01203 3      37    1000000 10195… 0     1     3       
 7 2023GQ0000118 5        01900 3      37    1000000 10195… 0     1     3       
 8 2023GQ0000130 5        02500 3      37    1000000 10195… 0     1     3       
 9 2023GQ0000142 5        01201 3      37    1000000 10195… 0     1     3       
10 2023GQ0000205 5        02600 3      37    1000000 10195… 0     1     3       
# ℹ 111,910 more rows
# ℹ 510 more variables: ACCESSINET <chr>, ACR <chr>, AGS <chr>, BATH <chr>,
#   BDSP <chr>, BLD <chr>, BROADBND <chr>, COMPOTHX <chr>, CONP <chr>,
#   DIALUP <chr>, ELEFP <chr>, ELEP <chr>, FS <chr>, FULFP <chr>, FULP <chr>,
#   GASFP <chr>, GASP <chr>, HFL <chr>, HISPEED <chr>, HOTWAT <chr>,
#   INSP <chr>, LAPTOP <chr>, MHP <chr>, MRGI <chr>, MRGP <chr>, MRGT <chr>,
#   MRGX <chr>, OTHSVCEX <chr>, REFR <chr>, RMSP <chr>, RNTM <chr>, …
…
# data dictionary for values
data_dictionary_values <- data_dictionary |>
  filter(row_type == "VAL") |>
  select(variable_name, data_type, length, value, value_max, data_label)

# filter on the missing values....trying to decide what to do with them...
data_dictionary_values |>
  filter(value == strrep(rep("b", length(data_dictionary_values$value)), 
                         length))

# A tibble: 235 × 6
   variable_name data_type length value value_max data_label                    
   <chr>         <chr>      <int> <chr> <chr>     <chr>                         
 1 ACCESSINET    C              1 b     b         N/A (GQ/vacant)               
 2 ACR           C              1 b     b         N/A (GQ/not a one-family hous…
 3 AGS           C              1 b     b         N/A (GQ/vacant/not a one fami…
 4 BATH          C              1 b     b         N/A (GQ)                      
 5 BDSP          N              2 bb    bb        N/A (GQ)                      
 6 BLD           C              2 bb    bb        N/A (GQ)                      
 7 BROADBND      C              1 b     b         N/A (GQ/vacant/no paid access…
 8 COMPOTHX      C              1 b     b         N/A (GQ/vacant)               
 9 CONP          N              4 bbbb  bbbb      N/A (GQ/vacant units/not owne…
10 DIALUP        C              1 b     b         N/A (GQ/vacant/no paid access…
# ℹ 225 more rows

data_dictionary_names

# A tibble: 521 × 2
   variable_name value                                                          
   <chr>         <chr>                                                          
 1 RT            Record Type                                                    
 2 SERIALNO      Housing unit/GQ person serial number                           
 3 DIVISION      Division code based on 2020 Census definitions                 
 4 PUMA          Public use microdata area code (PUMA) based on 2020 Census def…
 5 REGION        Region code based on 2020 Census definitions                   
 6 STATE         State Code based on 2020 Census definitions                    
 7 ADJHSG        Adjustment factor for housing dollar amounts (6 implied decima…
 8 ADJINC        Adjustment factor for income and earnings dollar amounts (6 im…
 9 WGTP          Housing Unit Weight                                            
10 NP            Number of persons in this household                            
# ℹ 511 more rows

data_dictionary_values

# A tibble: 5,385 × 6
   variable_name data_type length value         value_max     data_label        
   <chr>         <chr>      <int> <chr>         <chr>         <chr>             
 1 RT            C              1 H             H             Housing Record or…
 2 RT            C              1 P             P             Person Record     
 3 SERIALNO      C             13 2023GQ0000001 2023GQ9999999 GQ Unique identif…
 4 SERIALNO      C             13 2023HU0000001 2023HU9999999 HU Unique identif…
 5 DIVISION      C              1 0             0             Puerto Rico       
 6 DIVISION      C              1 1             1             New England (Nort…
 7 DIVISION      C              1 2             2             Middle Atlantic (…
 8 DIVISION      C              1 3             3             East North Centra…
 9 DIVISION      C              1 4             4             West North Centra…
10 DIVISION      C              1 5             5             South Atlantic (S…
# ℹ 5,375 more rows
…
It works! Hooray!!! Need to put the above into a function

Summaries

One-way contingency table

census |>
  group_by(HHLDRHISP) |>
  filter(!is.na(HHLDRHISP)) |>
  summarize(individuals = sum(PWGTP)) |>
  arrange(desc(individuals))

# A tibble: 23 × 2
   HHLDRHISP                         individuals
   <fct>                                   <dbl>
 1 Not Spanish/Hispanic/Latino           9443800
 2 Mexican                                534351
 3 Puerto Rican                           118199
 4 Honduran                                81184
 5 Salvadoran                              70170
 6 Guatemalan                              54261
 7 All Other Spanish/Hispanic/Latino       44484
 8 Dominican                               35588
 9 Colombian                               33982
10 Cuban                                   26249
# ℹ 13 more rows
…
